<?xml version="1.0" encoding="utf-8"?>
<!-- Generator: Adobe Illustrator 16.0.0, SVG Export Plug-In . SVG Version: 6.00 Build 0)  -->
<!DOCTYPE svg PUBLIC "-//W3C//DTD SVG 1.1//EN" "http://www.w3.org/Graphics/SVG/1.1/DTD/svg11.dtd">
<svg version="1.1" id="Calque_1" xmlns="http://www.w3.org/2000/svg" xmlns:xlink="http://www.w3.org/1999/xlink" x="0px" y="0px"
	 width="141.73px" height="141.73px" viewBox="0 0 141.73 141.73" enable-background="new 0 0 141.73 141.73" xml:space="preserve">
<g>
	<g>
		<defs>
			<rect id="SVGID_1_" x="22.503" y="22.5" width="103.33" height="103.327"/>
		</defs>
		<clipPath id="SVGID_2_">
			<use xlink:href="#SVGID_1_"  overflow="visible"/>
		</clipPath>
		<g clip-path="url(#SVGID_2_)">
			<path fill="#FFFFFF" d="M85.496,50.66H80.65c-0.461,0-0.891-0.236-1.143-0.627c-0.255-0.39-0.296-0.888-0.115-1.318
				c0.301-0.721,0.454-1.487,0.454-2.275c0-3.198-2.549-5.799-5.68-5.799s-5.681,2.602-5.681,5.799c0,0.787,0.153,1.552,0.457,2.277
				c0.179,0.431,0.135,0.927-0.118,1.316c-0.252,0.392-0.679,0.627-1.14,0.627h-4.846c-2.809,0-5.168,1.998-5.79,4.677h34.237
				C90.665,52.657,88.305,50.66,85.496,50.66z"/>
			<path fill="#FFFFFF" d="M74.167,22.5c-28.532,0-51.664,23.13-51.664,51.664c0,28.532,23.131,51.663,51.664,51.663
				s51.666-23.131,51.666-51.663C125.833,45.63,102.699,22.5,74.167,22.5z M62.838,47.866h3.03c-0.079-0.47-0.116-0.945-0.116-1.427
				c0-4.739,3.775-8.593,8.415-8.593c4.641,0,8.414,3.854,8.414,8.593c0,0.482-0.04,0.959-0.115,1.427h3.03
				c4.786,0,8.681,3.979,8.681,8.868c0,0.772-0.609,1.397-1.367,1.397H55.524c-0.756,0-1.367-0.625-1.367-1.397
				C54.157,51.845,58.051,47.866,62.838,47.866z M87.999,77.634H60.707c-0.754,0-1.367-0.626-1.367-1.396
				c0-0.773,0.613-1.397,1.367-1.397h27.292c0.755,0,1.365,0.624,1.365,1.397C89.364,77.008,88.754,77.634,87.999,77.634z
				 M89.364,83.641c0,0.771-0.61,1.396-1.365,1.396H60.707c-0.754,0-1.367-0.624-1.367-1.396c0-0.773,0.613-1.399,1.367-1.399
				h27.292C88.754,82.241,89.364,82.867,89.364,83.641z M87.999,70.231H60.707c-0.754,0-1.367-0.625-1.367-1.397
				c0-0.773,0.613-1.396,1.367-1.396h27.292c0.755,0,1.365,0.624,1.365,1.396C89.364,69.606,88.754,70.231,87.999,70.231z
				 M53.505,59.118c0.756,0,1.367,0.627,1.367,1.399v37.975c0,1.592,1.27,2.888,2.827,2.888h32.934c1.559,0,2.828-1.296,2.828-2.888
				V60.517c0-0.772,0.612-1.399,1.367-1.399s1.368,0.627,1.368,1.399v37.975c0,3.134-2.496,5.681-5.563,5.681H57.7
				c-3.067,0-5.562-2.547-5.562-5.681V60.517C52.138,59.745,52.751,59.118,53.505,59.118z M102.743,105.128
				c0,2.951-2.42,5.354-5.397,5.354H50.988c-2.977,0-5.4-2.403-5.4-5.354V54.835c0-2.951,2.424-5.352,5.4-5.352
				c0.757,0,1.367,0.625,1.367,1.396c0,0.771-0.61,1.398-1.367,1.398c-1.468,0-2.663,1.146-2.663,2.558v50.293
				c0,1.413,1.195,2.56,2.663,2.56h46.357c1.469,0,2.663-1.146,2.663-2.56V54.835c0-1.412-1.194-2.558-2.663-2.558
				c-0.757,0-1.367-0.627-1.367-1.398c0-0.77,0.61-1.396,1.367-1.396c2.978,0,5.397,2.401,5.397,5.352V105.128z"/>
		</g>
	</g>
</g>
</svg>
